{
    "editor": [
        {
            "icon": "",
            "key": "settings",
            "header": "Settings",
            "disabled": false,
            "fields": [
                {
                    "key": "bgImg",
                    "header": "App Background",
                    "type": "image"
                },
                {
                    "key": "fontName",
                    "header": "App Font Name (Google Fonts)",
                    "type": "text"
                },
                {
                    "key": "firstImage",
                    "header": "First Screen Image",
                    "type": "image"
                },
                {
                    "key": "btnText",
                    "header": "Button Text",
                    "type": "text"
                },
                {
                    "key": "btnBackground",
                    "header": "Button Background",
                    "type": "color"
                },
                {
                    "key": "btnFontColor",
                    "header": "Button Font Color",
                    "type": "color"
                },
                {
                    "key": "clicks",
                    "header": "Clicks Required",
                    "type": "range",
                    "options": {
                        "minValue": 1,
                        "maxValue": 100,
                        "stepSize": "1"
                    }
                },
                {
                    "key": "captionTitle",
                    "header": "Caption Title",
                    "type": "text"
                },
                {
                    "key": "captionColor",
                    "header": "Caption Font color",
                    "type": "color"
                },
                {
                    "key": "secondImage",
                    "header": "Second Screen Image",
                    "type": "image"
                },
                {
                    "key": "secondText",
                    "header": "Second Screen Text",
                    "type": "text"
                },
                {
                    "key": "secondTextColor",
                    "header": "Second Screen Text Color",
                    "type": "color"
                },
                {
                    "key": "sound",
                    "header": "Second Screen Sound",
                    "type": "sound"
                },
                {
                    "key": "soundPlayed",
                    "header": "Sound On/Off",
                    "type": "boolean"
                }
            ]
        }
    ],
    "config": {
        "settings": {
            "bgImg": "https://frontend.apps.playcent.com/885fead2bfb642358cf164e7811857f8/assets/crypto-investiment.jpg",
            "fontName": "Bangers",
            "firstImage": "https://frontend.apps.playcent.com/885fead2bfb642358cf164e7811857f8/assets/shutterstock_763385458-2.jpg",
            "btnText": "Tap here",
            "btnBackground": "#c6c6c6",
            "btnFontColor": "#000",
            "clicks": 10,
            "captionTitle": "See the next 100x project",
            "captionColor": "#08da57",
            "secondImage": "https://frontend.apps.playcent.com/e124fc158aa04fcd9a1f31696b82e287/assets/Rohit-Sharma.jpg",
            "secondText": "Matic",
            "secondTextColor": "#08da57",
            "sound": "./assets/music.mp3",
            "soundPlayed": true
        }
    }
}